…
        ℹ Use `spec()` to retrieve the full column specification for this data.
        ℹ Specify the column types or set `show_col_types = FALSE` to quiet this message.

2.  Привести датасеты в вид “аккуратных данных”, преобразовать типы
    столбцов в соответствии с типом данных

    ``` r
    ap_data
    ```

        # A tibble: 166 × 15
           BSSID    First_time_seen     Last_time_seen      channel Speed Privacy Cipher
           <chr>    <dttm>              <dttm>                <dbl> <dbl> <chr>   <chr> 
         1 6E:C7:E… 2023-07-28 09:13:03 2023-07-28 11:55:12       1   130 WPA2    CCMP  
         2 9A:75:A… 2023-07-28 09:13:03 2023-07-28 11:53:31       1   360 WPA2    CCMP  
         3 4A:EC:1… 2023-07-28 09:13:03 2023-07-28 11:04:01       7   360 WPA2    CCMP  
         4 D2:6D:5… 2023-07-28 09:13:03 2023-07-28 10:30:19       6   130 WPA2    CCMP  
         5 E8:28:C… 2023-07-28 09:13:03 2023-07-28 11:55:38       6   130 OPN     <NA>  
         6 BE:F1:7… 2023-07-28 09:13:03 2023-07-28 11:50:44      11   195 WPA2    CCMP  
         7 0A:C5:E… 2023-07-28 09:13:03 2023-07-28 11:36:31      11   130 WPA2    CCMP  
         8 38:1A:5… 2023-07-28 09:13:03 2023-07-28 10:25:02      11   130 WPA2    CCMP  
         9 BE:F1:7… 2023-07-28 09:13:03 2023-07-28 10:29:21       1   195 WPA2    CCMP  
        10 1E:93:E… 2023-07-28 09:13:04 2023-07-28 11:53:37       6   180 WPA2    CCMP  
        # ℹ 156 more rows
        # ℹ 8 more variables: Authentication <chr>, Power <dbl>, `#beacons` <dbl>,
        #   `#IV` <dbl>, LAN_IP <chr>, ID_length <dbl>, ESSID <chr>, Key <lgl>

    ``` r
    sta_data
    ```

        # A tibble: 12,081 × 7
           Station_MAC       First_time_seen     Last_time_seen      Power Packets BSSID
           <chr>             <dttm>              <dttm>              <dbl>   <dbl> <chr>
         1 CA:66:3B:8F:56:DD 2023-07-28 09:13:03 2023-07-28 10:59:44   -33     858 BE:F…
         2 96:35:2D:3D:85:E6 2023-07-28 09:13:03 2023-07-28 09:13:03   -65       4 <NA> 
         3 5C:3A:45:9E:1A:7B 2023-07-28 09:13:03 2023-07-28 11:51:54   -39     432 BE:F…
         4 C0:E4:34:D8:E7:E5 2023-07-28 09:13:03 2023-07-28 11:53:16   -61     958 BE:F…
         5 5E:8E:A6:5E:34:81 2023-07-28 09:13:04 2023-07-28 09:13:04   -53       1 <NA> 
         6 10:51:07:CB:33:E7 2023-07-28 09:13:05 2023-07-28 11:56:06   -43     344 <NA> 
         7 68:54:5A:40:35:9E 2023-07-28 09:13:06 2023-07-28 11:50:50   -31     163 1E:9…
         8 74:4C:A1:70:CE:F7 2023-07-28 09:13:06 2023-07-28 09:20:01   -71       3 E8:2…
         9 8A:A3:5A:33:76:57 2023-07-28 09:13:06 2023-07-28 10:20:27   -74     115 00:2…
        10 CA:54:C4:8B:B5:3A 2023-07-28 09:13:06 2023-07-28 11:55:04   -65     437 00:2…
        # ℹ 12,071 more rows
        # ℹ 1 more variable: Probed_ESSIDs <chr>
…
3.  Определить небезопасные точки доступа (без шифрования – OPN)

    ``` r
    insecure_aps <- ap_data_clean %>% filter(Privacy == "OPN" | is.na(Privacy))
    insecure_aps 
    ```

        # A tibble: 85 × 17
           BSSID    First_time_seen     Last_time_seen      channel Speed Privacy Cipher
           <chr>    <dttm>              <dttm>                <int> <int> <chr>   <chr> 
         1 E8:28:C… 2023-07-28 09:13:03 2023-07-28 11:55:38       6   130 OPN     <NA>  
         2 E8:28:C… 2023-07-28 09:13:06 2023-07-28 11:55:12       6   130 OPN     <NA>  
         3 E8:28:C… 2023-07-28 09:13:06 2023-07-28 11:55:11       6   130 OPN     <NA>  
         4 E8:28:C… 2023-07-28 09:13:06 2023-07-28 11:55:10       6    -1 OPN     <NA>  
         5 00:25:0… 2023-07-28 09:13:06 2023-07-28 11:56:21      44    -1 OPN     <NA>  
         6 E8:28:C… 2023-07-28 09:13:09 2023-07-28 11:56:05      11   130 OPN     <NA>  
         7 E8:28:C… 2023-07-28 09:13:13 2023-07-28 10:27:06       6   130 OPN     <NA>  
         8 E8:28:C… 2023-07-28 09:13:13 2023-07-28 10:39:43       6   130 OPN     <NA>  
         9 E8:28:C… 2023-07-28 09:13:17 2023-07-28 11:52:32       1   130 OPN     <NA>  
        10 E8:28:C… 2023-07-28 09:13:50 2023-07-28 11:43:39      11   130 OPN     <NA>  
        # ℹ 75 more rows
        # ℹ 10 more variables: Authentication <chr>, Power <int>, `#beacons` <dbl>,
        #   `#IV` <dbl>, LAN_IP <chr>, ID_length <int>, ESSID <chr>, Key <lgl>,
        #   Beacons <int>, IV <int>
…
8.  Отсортировать точки доступа по частоте отправки запросов (beacons) в
    единицу времени по их убыванию.

    ``` r
    beacon_rate <- ap_data_clean %>% mutate(Duration_min = Duration_sec / 60, Beacons_per_min = Beacons / pmax(Duration_min, 1)) %>% arrange(desc(Beacons_per_min))
    beacon_rate
    ```

        # A tibble: 166 × 21
           BSSID    First_time_seen     Last_time_seen      channel Speed Privacy Cipher
           <chr>    <dttm>              <dttm>                <int> <int> <chr>   <chr> 
         1 BE:F1:7… 2023-07-28 09:13:03 2023-07-28 11:50:44      11   195 WPA2    CCMP  
         2 38:1A:5… 2023-07-28 09:13:03 2023-07-28 10:25:02      11   130 WPA2    CCMP  
         3 0A:C5:E… 2023-07-28 09:13:03 2023-07-28 11:36:31      11   130 WPA2    CCMP  
         4 1E:93:E… 2023-07-28 09:13:04 2023-07-28 11:53:37       6   180 WPA2    CCMP  
         5 D2:6D:5… 2023-07-28 09:13:03 2023-07-28 10:30:19       6   130 WPA2    CCMP  
         6 BE:F1:7… 2023-07-28 09:13:03 2023-07-28 10:29:21       1   195 WPA2    CCMP  
         7 4A:86:7… 2023-07-28 10:33:58 2023-07-28 11:24:06       6   130 WPA2    CCMP  
         8 3A:70:9… 2023-07-28 11:30:10 2023-07-28 11:51:50       6   130 WPA2    CCMP  
         9 F2:30:A… 2023-07-28 10:27:02 2023-07-28 10:27:09       1   130 WPA2    CCMP  
        10 76:70:A… 2023-07-28 09:41:52 2023-07-28 10:27:25      11   180 WPA2    CCMP  
        # ℹ 156 more rows
        # ℹ 14 more variables: Authentication <chr>, Power <int>, `#beacons` <dbl>,
        #   `#IV` <dbl>, LAN_IP <chr>, ID_length <int>, ESSID <chr>, Key <lgl>,
        #   Beacons <int>, IV <int>, OUI <chr>, Duration_sec <dbl>, Duration_min <dbl>,
        #   Beacons_per_min <dbl>

9.  Определить производителя для каждого обнаруженного устройства

    ``` r
    sta_with_vendor
    ```

        # A tibble: 12,081 × 10
           Station_MAC       First_time_seen     Last_time_seen      Power Packets BSSID
           <chr>             <dttm>              <dttm>              <int>   <int> <chr>
         1 CA:66:3B:8F:56:DD 2023-07-28 09:13:03 2023-07-28 10:59:44   -33     858 BE:F…
         2 96:35:2D:3D:85:E6 2023-07-28 09:13:03 2023-07-28 09:13:03   -65       4 <NA> 
         3 5C:3A:45:9E:1A:7B 2023-07-28 09:13:03 2023-07-28 11:51:54   -39     432 BE:F…
         4 C0:E4:34:D8:E7:E5 2023-07-28 09:13:03 2023-07-28 11:53:16   -61     958 BE:F…
         5 5E:8E:A6:5E:34:81 2023-07-28 09:13:04 2023-07-28 09:13:04   -53       1 <NA> 
         6 10:51:07:CB:33:E7 2023-07-28 09:13:05 2023-07-28 11:56:06   -43     344 <NA> 
         7 68:54:5A:40:35:9E 2023-07-28 09:13:06 2023-07-28 11:50:50   -31     163 1E:9…
         8 74:4C:A1:70:CE:F7 2023-07-28 09:13:06 2023-07-28 09:20:01   -71       3 E8:2…
         9 8A:A3:5A:33:76:57 2023-07-28 09:13:06 2023-07-28 10:20:27   -74     115 00:2…
        10 CA:54:C4:8B:B5:3A 2023-07-28 09:13:06 2023-07-28 11:55:04   -65     437 00:2…
        # ℹ 12,071 more rows
        # ℹ 4 more variables: Probed_ESSIDs <chr>, OUI <chr>, ShortName <chr>,
        #   FullName <chr>
…
    ``` r
    sta_clusters <- sta_data_clean %>% filter(BSSID != "(not associated)" & !is.na(Probed_ESSIDs) & Probed_ESSIDs != "") %>% group_by(BSSID, Probed_ESSIDs) %>% summarise(
      mean_power = mean(Power, na.rm = TRUE),
      sd_power = sd(Power, na.rm = TRUE),
      n = n(),
      first_seen = min(First_time_seen),
      last_seen = max(Last_time_seen),
      .groups = "drop"
    ) %>% arrange(sd_power)

    sta_clusters
    ```

        # A tibble: 53 × 7
           BSSID             Probed_ESSIDs mean_power sd_power     n first_seen         
           <chr>             <chr>              <dbl>    <dbl> <int> <dttm>             
         1 1E:93:E3:1B:3C:F4 Galaxy A71         -48.5    0.707     2 2023-07-28 09:13:13
         2 8E:55:4A:85:5B:01 Vladimir           -51.5    4.12      4 2023-07-28 09:31:57
         3 00:26:99:F2:7A:E2 GIVC               -64.7    4.54      7 2023-07-28 09:13:06
         4 00:26:99:BA:75:80 GIVC               -60.3    5.32      6 2023-07-28 09:39:02
         5 E8:28:C1:DD:04:52 MIREA_HOTSPOT      -69      5.66      2 2023-07-28 10:27:47
         6 E8:28:C1:DC:B2:50 MIREA_GUESTS       -57.7    5.77      3 2023-07-28 10:35:02
         7 AA:F4:3F:EE:49:0B Redmi Note 8…      -49      8.49      2 2023-07-28 09:19:44
         8 E8:28:C1:DC:F0:90 MIREA_GUESTS       -63      8.49      2 2023-07-28 10:30:39
         9 E8:28:C1:DC:B2:52 MIREA_HOTSPOT      -62.3    9.35      6 2023-07-28 09:15:24
        10 E8:28:C1:DE:74:32 MIREA_HOTSPOT      -52.3   12.7       3 2023-07-28 10:28:31
        # ℹ 43 more rows
        # ℹ 1 more variable: last_seen <dttm>
…
